{
  "language": "Solidity",
  "sources": {
    "lib/openzeppelin-contracts/contracts/access/Ownable.sol": {
      "content": "// SPDX-License-Identifier: MIT\n// OpenZeppelin Contracts (last updated v4.9.0) (access/Ownable.sol)\n\npragma solidity ^0.8.0;\n\nimport \"../utils/Context.sol\";\n\n/**\n * @dev Contract module which provides a basic access control mechanism, where\n * there is an account (an owner) that can be granted exclusive access to\n * specific functions.\n *\n * By default, the owner account will be the one that deploys the contract. This\n * can later be changed with {transferOwnership}.\n *\n * This module is used through inheritance. It will make available the modifier\n * `onlyOwner`, which can be applied to your functions to restrict their use to\n * the owner.\n */\nabstract contract Ownable is Context {\n    address private _owner;\n\n    event OwnershipTransferred(address indexed previousOwner, address indexed newOwner);\n\n    /**\n     * @dev Initializes the contract setting the deployer as the initial owner.\n     */\n    constructor() {\n        _transferOwnership(_msgSender());\n    }\n\n    /**\n     * @dev Throws if called by any account other than the owner.\n     */\n    modifier onlyOwner() {\n        _checkOwner();\n        _;\n    }\n\n    /**\n     * @dev Returns the address of the current owner.\n     */\n    function owner() public view virtual returns (address) {\n        return _owner;\n    }\n\n    /**\n     * @dev Throws if the sender is not the owner.\n     */\n    function _checkOwner() internal view virtual {\n        require(owner() == _msgSender(), \"Ownable: caller is not the owner\");\n    }\n\n    /**\n     * @dev Leaves the contract without owner. It will not be possible to call\n     * `onlyOwner` functions. Can only be called by the current owner.\n     *\n     * NOTE: Renouncing ownership will leave the contract without an owner,\n     * thereby disabling any functionality that is only available to the owner.\n     */\n    function renounceOwnership() public virtual onlyOwner {\n        _transferOwnership(address(0));\n    }\n\n    /**\n     * @dev Transfers ownership of the contract to a new account (`newOwner`).\n     * Can only be called by the current owner.\n     */\n    function transferOwnership(address newOwner) public virtual onlyOwner {\n        require(newOwner != address(0), \"Ownable: new owner is the zero address\");\n        _transferOwnership(newOwner);\n    }\n\n    /**\n     * @dev Transfers ownership of the contract to a new account (`newOwner`).\n     * Internal function without access restriction.\n     */\n    function _transferOwnership(address newOwner) internal virtual {\n        address oldOwner = _owner;\n        _owner = newOwner;\n        emit OwnershipTransferred(oldOwner, newOwner);\n    }\n}\n"
    },
    "lib/openzeppelin-contracts/contracts/utils/Context.sol": {
      "content": "// SPDX-License-Identifier: MIT\n// OpenZeppelin Contracts v4.4.1 (utils/Context.sol)\n\npragma solidity ^0.8.0;\n\n/**\n * @dev Provides information about the current execution context, including the\n * sender of the transaction and its data. While these are generally available\n * via msg.sender and msg.data, they should not be accessed in such a direct\n * manner, since when dealing with meta-transactions the account sending and\n * paying for execution may not be the actual sender (as far as an application\n * is concerned).\n *\n * This contract is only required for intermediate, library-like contracts.\n */\nabstract contract Context {\n    function _msgSender() internal view virtual returns (address) {\n        return msg.sender;\n    }\n\n    function _msgData() internal view virtual returns (bytes calldata) {\n        return msg.data;\n    }\n}\n"
    },
    "src/Counter.sol": {
      "content": "// SPDX-License-Identifier: UNLICENSED\npragma solidity ^0.8.13;\n\ncontract Counter {\n    uint256 public number;\n\n    function setNumber(uint256 newNumber) public {\n        number = newNumber;\n    }\n\n    function increment() public {\n        number++;\n    }\n}\n"
    },
    "src/Lock.sol": {
      "content": "// SPDX-License-Identifier: UNLICENSED\npragma solidity ^0.8.9;\n\n// Uncomment this line to use console.log\n// import \"hardhat/console.sol\";\n\ncontract Lock {\n    uint public unlockTime;\n    address payable public owner;\n\n    event Withdrawal(uint amount, uint when);\n\n    constructor(uint _unlockTime) payable {\n        require(\n            block.timestamp < _unlockTime,\n            \"Unlock time should be in the future\"\n        );\n\n        unlockTime = _unlockTime;\n        owner = payable(msg.sender);\n    }\n\n    function withdraw() public {\n        // Uncomment this line, and the import of \"hardhat/console.sol\", to print a log in your terminal\n        // console.log(\"Unlock time is %o and block timestamp is %o\", unlockTime, block.timestamp);\n\n        require(block.timestamp >= unlockTime, \"You can't withdraw yet\");\n        require(msg.sender == owner, \"You aren't the owner\");\n\n        emit Withdrawal(address(this).balance, block.timestamp);\n\n        owner.transfer(address(this).balance);\n    }\n}\n"
    },
    "src/MixieThenaAutomation.sol": {
      "content": "// SPDX-License-Identifier: UNLICENSED\npragma solidity ^0.8.18;\n\nimport \"lib/openzeppelin-contracts/contracts/access/Ownable.sol\";\n\nerror ArrayLengthMismatch();\n\n// This contract automate claiming rebase, increasing unlock time and voting for MIX pools\ncontract MixieThenaAutomation is Ownable {\n    VoterV3 public constant voter =\n        VoterV3(0x3A1D0952809F4948d15EBCe8d345962A282C4fCb); // https://bscscan.com/address/0x3A1D0952809F4948d15EBCe8d345962A282C4fCb\n    RewardsDistributorV2 public constant rewardDistributor =\n        RewardsDistributorV2(0xC6bE40f6a14D4C2F3AAdf9b02294b003e3967779); // https://bscscan.com/address/0xc6be40f6a14d4c2f3aadf9b02294b003e3967779\n    VotingEscrow public constant votingEscrow =\n        VotingEscrow(0xfBBF371C9B0B994EebFcC977CEf603F7f31c070D); // https://bscscan.com/address/0xfbbf371c9b0b994eebfcc977cef603f7f31c070d#code\n\n    address[] public pools = [0x0f7d50A2728dE6f94B3aC8013031f527572cc9F1]; // MIX/WBNB https://bscscan.com/address/0x0f7d50a2728de6f94b3ac8013031f527572cc9f1\n    uint256[] public weights = [100];\n\n    uint public constant MAXTIME = 2 * 365 * 86400;\n\n    function configure(\n        address[] calldata _pools,\n        uint256[] calldata _weights\n    ) external onlyOwner {\n        if (_pools.length != _weights.length) {\n            revert ArrayLengthMismatch();\n        }\n        delete pools;\n        for (uint idx = 0; idx < _pools.length; ++idx) {\n            pools.push(_pools[idx]);\n        }\n        delete weights;\n        for (uint idx = 0; idx < _weights.length; ++idx) {\n            weights.push(_weights[idx]);\n        }\n    }\n\n    function run(uint256 tokenId) external {\n        // tokenId must have been approved for this contract\n        rewardDistributor.claim(tokenId);\n        votingEscrow.increase_unlock_time(tokenId, MAXTIME);\n        voter.vote(tokenId, pools, weights);\n    }\n}\n\ninterface VoterV3 {\n    function vote(\n        uint _tokenId,\n        address[] calldata _poolVote,\n        uint256[] calldata _weights\n    ) external;\n}\n\ninterface RewardsDistributorV2 {\n    function claim(uint _tokenId) external returns (uint);\n}\n\ninterface VotingEscrow {\n    function increase_unlock_time(uint _tokenId, uint _lock_duration) external;\n}\n"
    }
  },
  "settings": {
    "optimizer": {
      "enabled": false,
      "runs": 200
    },
    "outputSelection": {
      "*": {
        "*": [
          "abi",
          "evm.bytecode",
          "evm.deployedBytecode",
          "evm.methodIdentifiers",
          "metadata",
          "devdoc",
          "userdoc",
          "storageLayout",
          "evm.gasEstimates"
        ],
        "": [
          "ast"
        ]
      }
    },
    "metadata": {
      "useLiteralContent": true
    },
    "libraries": {
      "": {
        "__CACHE_BREAKER__": "0x0000000000000031363836333330393938353039"
      }
    }
  }
}